{
  "web3Provider": {
    "type": "ipc",
    "url": "~/.ethereum/testnet/geth.ipc"
  },
  "conns": {
    "cfgFile": "conf/conns.json"
  },
  "walletsAccount": {
    "owner": 0,
    "dso": 1,
    "player": 2,
    "referee": 3
  },
  "gasPriceFactor": 1.5,
  "smartContracts": {
    "truffleProjectFolder": "contracts",
    "GroupsManager": {
      "address": "0x5a6ec5f6a28fdb1177d9fd492bba57ae6f8cd698",
      "fileName": "GroupsManager.json"
    },
    "NGT": {
      "address": "0x1b9705bd8c3ddaef2c0784c2cb230c0ba494ac12",
      "fileName": "NGT.json"
    },
    "MarketsManager": {
      "fileName": "MarketsManager.json",
      "defaults": {
        "type": 2,
        "maxCreationAttempts": 3,
        "maxLower": 10,
        "maxUpper": 20,
        "revenueFactor": 10,
        "penaltyFactor": 20,
        "dsoStaking": 100,
        "playerStaking": 200,
        "percReferee": 2
      }
    }
  },
  "marketsSettings": {
    "minPower": 6,
    "maxPower": 32,
    "tokens": {
      "minting": {
        "forDSO": 20000,
        "forPlayer": 20000,
        "forReferee": 1000
      },
      "allowance": {
        "DSO2Market": 10000,
        "Player2Market": 10000
      }
    }
  }
}
