{
  "web3Provider": {
    "type": "http",
    "url": "http://localhost:8545"
  },
  "conns": {
    "cfgFile": "conf/conns.json"
  },
  "walletsAccount": {
    "owner": 0,
    "dso": 1,
    "player": 3,
    "referee": 4
  },
  "gasPriceFactor": 1.0,
  "smartContracts": {
    "truffleProjectFolder": "contracts",
    "GroupsManager": {
      "address": "0xc89a7846353cef060501d66312bc53a6588e56ea",
      "fileName": "GroupsManager.json"
    },
    "NGT": {
      "address": "0xd2f651e8820b1ada1a776f0897282db9586ad854",
      "fileName": "NGT.json"
    },
    "DevicesList": {
      "address": "0xf8675b439a78c6cfc91d7a54be28a7e72af0b7e3",
      "fileName": "DevicesList.json"
    },
    "MarketsManager": {
      "fileName": "MarketsManager.json",
      "defaults": {
        "type": 2,
        "maxCreationAttempts": 3,
        "maxLower": 10,
        "maxUpper": 20,
        "revenueFactor": 10,
        "penaltyFactor": 10,
        "dsoStaking": 100,
        "playerStaking": 100,
        "percReferee": 2
      }
    }
  },
  "marketsSettings": {
    "minPower": 6,
    "maxPower": 32,
    "tokens": {
      "minting": {
        "forDSO": 20000,
        "forPlayer": 20000,
        "forReferee": 1000
      },
      "allowance": {
        "DSO2Market": 10000,
        "Player2Market": 10000
      }
    }
  }
}
